<?xml version="1.0" encoding="UTF-8" standalone="no"?>
<svg
   xmlns:dc="http://purl.org/dc/elements/1.1/"
   xmlns:cc="http://creativecommons.org/ns#"
   xmlns:rdf="http://www.w3.org/1999/02/22-rdf-syntax-ns#"
   xmlns:svg="http://www.w3.org/2000/svg"
   xmlns="http://www.w3.org/2000/svg"
   xmlns:sodipodi="http://sodipodi.sourceforge.net/DTD/sodipodi-0.dtd"
   xmlns:inkscape="http://www.inkscape.org/namespaces/inkscape"
   sodipodi:docname="calligraphy-f06.svg"
   inkscape:version="1.0beta1 (a4ee55bc41, 2019-11-15)"
   sodipodi:version="0.32"
   id="svg2542"
   viewBox="0 0 300 130"
   height="130"
   width="300"
   version="1.1">
  <defs
     id="defs3">
    <marker
       inkscape:stockid="TriangleInL"
       orient="auto"
       refY="0"
       refX="0"
       id="TriangleInL"
       style="overflow:visible">
      <path
         sodipodi:nodetypes="cccc"
         id="path4781"
         d="M 5.77,0 -2.88,5 V -5 Z"
         style="fill-rule:evenodd;stroke:#000000;stroke-width:1pt;marker-start:none"
         transform="scale(-0.8)"
         inkscape:connector-curvature="0" />
    </marker>
  </defs>
  <sodipodi:namedview
     inkscape:window-maximized="0"
     inkscape:window-y="27"
     inkscape:window-x="54"
     inkscape:window-height="1053"
     inkscape:window-width="1866"
     inkscape:guide-bbox="true"
     showguides="true"
     units="px"
     showgrid="false"
     inkscape:document-rotation="0"
     inkscape:current-layer="layer1"
     inkscape:document-units="px"
     inkscape:cy="65"
     inkscape:cx="160"
     inkscape:zoom="1.4"
     inkscape:pageshadow="2"
     inkscape:pageopacity="0.0"
     borderopacity="1.0"
     bordercolor="#666666"
     pagecolor="#ffffff"
     id="base"
     inkscape:lockguides="true" />
  <metadata
     id="metadata4">
    <rdf:RDF>
      <cc:Work
         rdf:about="">
        <dc:format>image/svg+xml</dc:format>
        <dc:type
           rdf:resource="http://purl.org/dc/dcmitype/StillImage" />
        <dc:title />
      </cc:Work>
    </rdf:RDF>
  </metadata>
  <g
     id="layer1"
     inkscape:groupmode="layer"
     inkscape:label="Layer 1">
    <text
       id="text6476"
       y="6"
       x="50"
       style="font-style:normal;font-variant:normal;font-weight:normal;font-stretch:normal;line-height:0%;font-family:'Liberation Sans',Arial,sans-serif;writing-mode:lr-tb;text-align:center;text-anchor:middle;display:block;fill:#000000;fill-opacity:1;stroke:none;stroke-width:1pt;stroke-linecap:butt;stroke-linejoin:miter;stroke-opacity:1"
       xml:space="preserve"><tspan
         y="6"
         x="50"
         id="tspan6477"
         sodipodi:role="line"
         style="font-size:6px;line-height:1.1;text-align:center;text-anchor:middle">angle = 30</tspan><tspan
         y="13.258548"
         x="50"
         id="tspan6479"
         sodipodi:role="line"
         style="font-size:6px;line-height:1.1;text-align:center;text-anchor:middle">fixation = 100</tspan></text>
    <text
       id="text6481"
       y="6"
       x="150"
       style="font-style:normal;font-variant:normal;font-weight:normal;font-stretch:normal;line-height:0%;font-family:'Liberation Sans',Arial,sans-serif;writing-mode:lr-tb;text-align:center;text-anchor:middle;display:block;fill:#000000;fill-opacity:1;stroke:none;stroke-width:1pt;stroke-linecap:butt;stroke-linejoin:miter;stroke-opacity:1"
       xml:space="preserve"><tspan
         y="6"
         x="150"
         id="tspan6482"
         sodipodi:role="line"
         style="font-size:6px;line-height:1.1;text-align:center;text-anchor:middle">angle = 30</tspan><tspan
         y="13.258548"
         x="150"
         id="tspan6484"
         sodipodi:role="line"
         style="font-size:6px;line-height:1.1;text-align:center;text-anchor:middle">fixation = 80</tspan></text>
    <text
       id="text6486"
       y="6"
       x="250"
       style="font-style:normal;font-variant:normal;font-weight:normal;font-stretch:normal;line-height:0%;font-family:'Liberation Sans',Arial,sans-serif;writing-mode:lr-tb;text-align:center;text-anchor:middle;display:block;fill:#000000;fill-opacity:1;stroke:none;stroke-width:1pt;stroke-linecap:butt;stroke-linejoin:miter;stroke-opacity:1"
       xml:space="preserve"><tspan
         y="6"
         x="250"
         id="tspan6487"
         sodipodi:role="line"
         style="font-size:6px;line-height:1.1;text-align:center;text-anchor:middle">angle = 30</tspan><tspan
         y="13.258548"
         x="250"
         id="tspan6489"
         sodipodi:role="line"
         style="font-size:6px;line-height:1.1;text-align:center;text-anchor:middle">fixation = 0</tspan></text>
    <path
       d="m 210.88089,69.663 c -3.43279,-6.1357 -2.8196,-13.3497 -0.60994,-19.7956 4.0117,-9.5698 12.53513,-16.2 22.1501,-19.5273 9.26338,-2.9767 18.97192,-2.3206 28.34682,-0.2788 11.24152,2.8228 19.58477,11.4805 22.96511,22.4138 2.36761,12.142 2.24828,25.0924 -0.77583,37.1161 -2.9592,10.2614 -9.5973,19.6877 -19.09557,24.8291 -9.72001,4.6684 -21.097,4.1027 -30.08417,-1.9156 -10.02462,-7.655 -14.83521,-18.2428 -15.77636,-30.5757 -0.56356,-11.3529 5.77547,-20.7479 15.72167,-25.6358 11.76439,-5.5638 23.89651,-2.2126 31.83936,7.8746 6.87358,10.5529 4.85497,24.5105 -4.37582,32.8951 -5.1599,4.2266 -11.12801,5.0237 -17.29603,2.8026 l 2.78648,-7.126 c 3.31279,1.5361 6.5934,0.8091 9.43146,-1.3989 6.41294,-5.4841 7.76583,-15.3235 3.39576,-22.5 -5.54358,-7.4155 -14.03258,-9.612 -22.42407,-5.6736 -7.1504,3.4653 -11.82228,9.9659 -11.44948,18.187 0.74566,10.05 4.3324,18.4595 12.46401,24.8322 6.49851,4.5776 15.04697,4.7543 22.15558,1.4894 7.63983,-4.029 12.86792,-11.8467 15.29113,-19.9641 2.74055,-10.6821 2.75124,-22.1942 0.87072,-33.015 -2.45988,-8.3089 -8.81012,-14.9626 -17.28508,-17.1613 -7.99133,-1.7711 -16.28831,-2.4386 -24.21323,0.037 -7.4045,2.5368 -14.15983,7.5001 -17.41662,14.8094 -1.47925,4.1631 -2.06679,9.223 -0.24988,13.0374 z"
       id="path5108"
       style="display:block;fill:#cbcbcb;fill-opacity:1;fill-rule:nonzero;stroke:none;stroke-width:1pt;stroke-linecap:butt;stroke-linejoin:miter;stroke-opacity:1"
       inkscape:connector-curvature="0" />
    <path
       d="M 11.388723,65.7613 C 8.3801585,55.3719 14.502969,44.451 22.518149,38.1595 38.720006,26.9471 58.591347,23.0298 75.369048,34.9402 89.107849,46.4194 97.302279,64.2476 97.439429,82.1282 96.534519,98.9313 80.258739,109.7595 65.54274,114.5265 53.113546,117.0379 36.928913,115.0377 28.576558,104.5283 20.844234,92.4151 28.010708,78.9045 36.832721,69.6515 47.320164,59.23 59.38088,56.3841 71.673236,64.3718 c 8.181001,6.27 9.589025,15.5342 2.904048,23.3255 -6.654776,6.029 -20.559289,14.877 -27.766441,5.0492 -1.207695,-1.7422 -1.27159,-3.4213 -0.910246,-5.4314 l 6.626037,-3.8248 c -0.361339,2.0058 -0.297447,3.6868 0.910235,5.4296 3.102281,4.2327 7.324681,5.3126 12.374927,3.8571 1.362182,-0.3913 5.138534,-2.3364 3.95911,-1.5521 -1.546348,1.0307 -3.161022,1.9687 -4.827213,2.7917 -1.167654,0.5755 4.261167,-2.8154 3.007553,-2.4945 6.684969,-7.7909 5.276945,-17.0556 -2.904031,-23.3255 -4.348591,-2.8248 -9.489942,-5.1786 -14.797157,-5.0957 -2.013019,0.0324 -7.481832,2.5253 -5.903702,1.2756 1.455072,-1.1509 3.155662,-1.9544 4.747551,-2.9108 2.036572,-1.2222 -7.967238,4.8073 -5.635161,4.3589 -8.821993,9.2524 -15.988489,22.7657 -8.256171,34.8789 8.352383,10.5062 24.537017,12.5086 36.966213,9.9968 1.809281,-0.5863 6.715002,-3.3229 5.339349,-2.0103 -1.123495,1.0719 -2.632168,1.6531 -3.986635,2.4126 -1.778009,0.9966 3.458725,-2.1718 5.076233,-3.4127 C 85.651631,102.277 90.625699,95.0812 90.813429,85.9552 90.676279,68.0724 82.481843,50.2443 68.74304,38.7655 61.436607,33.5804 54.028472,30.9773 44.984944,31.3898 c -3.50036,0.1577 -7.046713,0.6272 -10.452852,1.4587 -2.179358,0.5311 -7.398385,4.1446 -6.377147,2.149 0.04023,-0.0804 8.247423,-5.2184 0.989246,-0.6656 -8.015184,6.2922 -14.13799,17.2115 -11.129454,27.6047 z"
       id="path5116"
       style="display:block;fill:#cbcbcb;fill-opacity:1;fill-rule:nonzero;stroke:none;stroke-width:1pt;stroke-linecap:butt;stroke-linejoin:miter;stroke-opacity:1"
       inkscape:connector-curvature="0" />
    <path
       d="m 110.84045,55.5754 c 0.0999,-7.9293 4.47958,-14.8836 10.08885,-20.1617 14.87205,-12.8033 31.28794,-11.4711 47.09064,-2.0261 15.9638,10.2137 26.08682,29.3247 22.80279,48.3388 -5.00692,18.4679 -23.93878,31.851 -42.4658,34.3368 -14.59709,0.8649 -26.99155,-12.7918 -28.90125,-26.6252 0.009,-16.1386 14.93403,-29.5262 30.29,-31.8853 13.65958,-0.5646 25.64468,8.6483 24.07758,22.8852 -4.49193,15.1767 -22.31155,20.5734 -34.76833,11.4881 -0.50789,-0.5142 -1.01582,-1.0257 -1.52367,-1.5399 l 6.41207,-4.1751 c 0.46173,0.4442 0.92368,0.8915 1.3854,1.3358 2.69372,1.8611 5.56305,3.4197 8.8048,4.1087 4.02892,0.8564 7.45253,-1.0472 6.86882,-0.3872 -1.07393,1.2173 -2.8075,1.6474 -4.07925,2.6567 -3.74956,2.9685 14.52889,-10.097 9.83143,-10.5603 2.0739,-13.3683 -9.86989,-21.7651 -22.50399,-20.4875 -3.55205,0.7707 -17.14215,5.8618 -17.88508,23.2752 1.48583,13.2617 13.66016,26.1152 27.51911,24.6199 12.78009,-2.2089 23.07929,-7.5155 29.83879,-26.1938 3.68044,-18.3854 -6.39741,-36.974 -21.90249,-46.7065 -6.89084,-4.0281 -14.08203,-7.3909 -22.25784,-7.0127 -2.79756,0.1277 -5.63885,0.6182 -8.30844,1.4707 -0.84075,0.2669 -3.08276,1.5694 -2.47893,0.9275 1.06235,-1.1334 2.68596,-1.5688 3.93947,-2.4835 1.38922,-1.0154 -5.90862,3.4258 -4.37509,2.7354 -5.68128,4.8927 -10.02035,11.2913 -10.50998,18.9528 z"
       id="path5131"
       style="display:block;fill:#cbcbcb;fill-opacity:1;fill-rule:nonzero;stroke:none;stroke-width:1pt;stroke-linecap:butt;stroke-linejoin:miter;stroke-opacity:1"
       inkscape:connector-curvature="0" />
    <path

       transform="matrix(-0.06218852,-0.930976,-0.930976,0.06218852,1532.867,59.391)"
       sodipodi:open="true"
       sodipodi:end="0.27379839"
       sodipodi:start="5.842748"
       d="m 144.50047,1564.1224 a 36.461613,36.461613 0 0 1 2.12154,25.4037"
       sodipodi:ry="36.461613"
       sodipodi:rx="36.461613"
       sodipodi:cy="1579.6672"
       sodipodi:cx="111.51856"
       id="path5132"
       style="color:#000000;display:block;visibility:visible;fill:none;fill-opacity:1;fill-rule:evenodd;stroke:#000000;stroke-width:0.375;stroke-linecap:butt;stroke-linejoin:miter;stroke-miterlimit:4;stroke-dashoffset:0;stroke-opacity:1;marker:none;marker-start:url(#TriangleInL);marker-mid:none;marker-end:none"
       sodipodi:type="arc"
       sodipodi:arc-type="arc" />
    <path

       transform="matrix(-0.411629,0.837343,0.837343,0.411629,-1225.743,-653.031)"
       sodipodi:open="true"
       sodipodi:end="0.27379839"
       sodipodi:start="5.842748"
       d="m 144.50047,1564.1224 a 36.461613,36.461613 0 0 1 2.12154,25.4037"
       sodipodi:ry="36.461613"
       sodipodi:rx="36.461613"
       sodipodi:cy="1579.6672"
       sodipodi:cx="111.51856"
       id="path5788"
       style="color:#000000;display:block;visibility:visible;fill:none;fill-opacity:1;fill-rule:evenodd;stroke:#000000;stroke-width:0.375;stroke-linecap:butt;stroke-linejoin:miter;stroke-miterlimit:4;stroke-dashoffset:0;stroke-opacity:1;marker:none;marker-start:url(#TriangleInL);marker-mid:none;marker-end:none"
       sodipodi:type="arc"
       sodipodi:arc-type="arc" />
    <path

       transform="matrix(-0.06218852,-0.930976,-0.930976,0.06218852,1627.644,57.761)"
       sodipodi:open="true"
       sodipodi:end="0.27379839"
       sodipodi:start="5.842748"
       d="m 144.50047,1564.1224 a 36.461613,36.461613 0 0 1 2.12154,25.4037"
       sodipodi:ry="36.461613"
       sodipodi:rx="36.461613"
       sodipodi:cy="1579.6672"
       sodipodi:cx="111.51856"
       id="path5789"
       style="color:#000000;display:block;visibility:visible;fill:none;fill-opacity:1;fill-rule:evenodd;stroke:#000000;stroke-width:0.375;stroke-linecap:butt;stroke-linejoin:miter;stroke-miterlimit:4;stroke-dashoffset:0;stroke-opacity:1;marker:none;marker-start:url(#TriangleInL);marker-mid:none;marker-end:none"
       sodipodi:type="arc"
       sodipodi:arc-type="arc" />
    <path

       transform="matrix(-0.411629,0.837343,0.837343,0.411629,-1127.066,-651.002)"
       sodipodi:open="true"
       sodipodi:end="0.27379839"
       sodipodi:start="5.842748"
       d="m 144.50047,1564.1224 a 36.461613,36.461613 0 0 1 2.12154,25.4037"
       sodipodi:ry="36.461613"
       sodipodi:rx="36.461613"
       sodipodi:cy="1579.6672"
       sodipodi:cx="111.51856"
       id="path5790"
       style="color:#000000;display:block;visibility:visible;fill:none;fill-opacity:1;fill-rule:evenodd;stroke:#000000;stroke-width:0.375;stroke-linecap:butt;stroke-linejoin:miter;stroke-miterlimit:4;stroke-dashoffset:0;stroke-opacity:1;marker:none;marker-start:url(#TriangleInL);marker-mid:none;marker-end:none"
       sodipodi:type="arc"
       sodipodi:arc-type="arc" />
    <path

       transform="matrix(-0.06218852,-0.930976,-0.930976,0.06218852,1727.566,56.842)"
       sodipodi:open="true"
       sodipodi:end="0.27379839"
       sodipodi:start="5.842748"
       d="m 144.50047,1564.1224 a 36.461613,36.461613 0 0 1 2.12154,25.4037"
       sodipodi:ry="36.461613"
       sodipodi:rx="36.461613"
       sodipodi:cy="1579.6672"
       sodipodi:cx="111.51856"
       id="path5791"
       style="color:#000000;display:block;visibility:visible;fill:none;fill-opacity:1;fill-rule:evenodd;stroke:#000000;stroke-width:0.375;stroke-linecap:butt;stroke-linejoin:miter;stroke-miterlimit:4;stroke-dashoffset:0;stroke-opacity:1;marker:none;marker-start:url(#TriangleInL);marker-mid:none;marker-end:none"
       sodipodi:type="arc"
       sodipodi:arc-type="arc" />
    <path

       transform="matrix(-0.411629,0.837343,0.837343,0.411629,-1024.434,-648.502)"
       sodipodi:open="true"
       sodipodi:end="0.27379839"
       sodipodi:start="5.842748"
       d="m 144.50047,1564.1224 a 36.461613,36.461613 0 0 1 2.12154,25.4037"
       sodipodi:ry="36.461613"
       sodipodi:rx="36.461613"
       sodipodi:cy="1579.6672"
       sodipodi:cx="111.51856"
       id="path5792"
       style="color:#000000;display:block;visibility:visible;fill:none;fill-opacity:1;fill-rule:evenodd;stroke:#000000;stroke-width:0.375;stroke-linecap:butt;stroke-linejoin:miter;stroke-miterlimit:4;stroke-dashoffset:0;stroke-opacity:1;marker:none;marker-start:url(#TriangleInL);marker-mid:none;marker-end:none"
       sodipodi:type="arc"
       sodipodi:arc-type="arc" />
    <g
       style="display:block"
       transform="matrix(0.22117,-0.127691,0.09762401,0.16909,-165.25331,-176.708)"
       id="use5793">
      <path
         sodipodi:nodetypes="ccccc"
         id="use4227"
         d="m 139.04475,1527.7299 h 14.51886 c 0,0 -0.0189,51.8997 15.3384,51.8997 -8.7409,47.2559 -10.0219,36.9421 -10.84135,46.7757 -8.77325,5.3489 -16.35418,6.3692 -19.73224,5.9823"
         style="fill:#ffffff;fill-opacity:1;fill-rule:evenodd;stroke:none;stroke-width:3.325;stroke-linecap:butt;stroke-linejoin:round;stroke-miterlimit:4;stroke-opacity:1"
         inkscape:connector-curvature="0" />
      <path
         sodipodi:nodetypes="ccccc"
         id="path4228"
         d="m 140.94842,1527.7299 h -14.51886 c 0,0 0.019,51.8997 -15.33832,51.8997 8.74098,47.2559 10.02196,36.9421 10.84143,46.7757 8.77326,5.3489 16.35419,6.3692 19.73225,5.9823"
         style="fill:#ffffff;fill-opacity:1;fill-rule:evenodd;stroke:none;stroke-width:3.325;stroke-linecap:butt;stroke-linejoin:round;stroke-miterlimit:4;stroke-opacity:1"
         inkscape:connector-curvature="0" />
      <path
         sodipodi:nodetypes="ccccc"
         id="path4229"
         d="m 140.94842,1527.2684 h -14.51886 c 0,0 0.019,51.8997 -15.33832,51.8997 8.74098,47.2559 10.02196,36.9421 10.84143,46.7757 10.61473,-5.0767 18.56396,-6.1416 19.38343,3.692"
         style="fill:#ffffff;fill-opacity:1;fill-rule:evenodd;stroke:none;stroke-width:3.325;stroke-linecap:butt;stroke-linejoin:round;stroke-miterlimit:4;stroke-opacity:1"
         inkscape:connector-curvature="0" />
      <path
         sodipodi:nodetypes="cccc"
         id="path4230"
         d="m 140.94842,1527.2684 h -14.51886 c 0,0 0.019,51.8997 -15.33832,51.8997 8.74098,47.2559 9.56045,38.7881 10.37992,48.6217"
         style="fill:none;fill-opacity:0.75;fill-rule:evenodd;stroke:#000000;stroke-width:3.325;stroke-linecap:butt;stroke-linejoin:round;stroke-miterlimit:4;stroke-opacity:1"
         inkscape:connector-curvature="0" />
      <path
         sodipodi:nodetypes="cccc"
         id="use4231"
         d="m 138.59128,1527.2684 h 14.51886 c 0,0 -0.019,51.8997 15.33832,51.8997 -8.74098,47.2559 -9.56045,38.7881 -10.37992,48.6217"
         style="fill:none;fill-opacity:0.75;fill-rule:evenodd;stroke:#000000;stroke-width:3.325;stroke-linecap:butt;stroke-linejoin:round;stroke-miterlimit:4;stroke-opacity:1"
         inkscape:connector-curvature="0" />
      <path
         id="path4232"
         d="m 140.12896,1527.5699 v 52.9355"
         style="fill:none;fill-opacity:0.75;fill-rule:evenodd;stroke:#000000;stroke-width:3.325;stroke-linecap:butt;stroke-linejoin:miter;stroke-miterlimit:4;stroke-opacity:1"
         inkscape:connector-curvature="0" />
      <path
         transform="matrix(1.065958,0.05034507,-0.03429285,0.726085,40.01797,415.8423)"
         style="color:#000000;display:block;visibility:visible;fill:#000000;fill-opacity:1;fill-rule:nonzero;stroke:none;stroke-width:3pt;marker:none"
         d="m 155.15253,1610.5809 c 0,10.4094 -4.21921,18.8478 -9.42388,18.8478 -5.20466,0 -9.42387,-8.4384 -9.42387,-18.8478 0,-10.4093 4.21921,-18.8477 9.42387,-18.8477 5.20467,0 9.42388,8.4384 9.42388,18.8477 z"
         id="path4233"
         inkscape:connector-curvature="0" />
    </g>
    <g
       style="display:block"
       transform="matrix(0.22117,-0.127691,0.09762401,0.16909,-151.66301,-205.103)"
       id="use5794">
      <path
         sodipodi:nodetypes="ccccc"
         id="use4235"
         d="m 139.04475,1527.7299 h 14.51886 c 0,0 -0.0189,51.8997 15.3384,51.8997 -8.7409,47.2559 -10.0219,36.9421 -10.84135,46.7757 -8.77325,5.3489 -16.35418,6.3692 -19.73224,5.9823"
         style="fill:#ffffff;fill-opacity:1;fill-rule:evenodd;stroke:none;stroke-width:3.325;stroke-linecap:butt;stroke-linejoin:round;stroke-miterlimit:4;stroke-opacity:1"
         inkscape:connector-curvature="0" />
      <path
         sodipodi:nodetypes="ccccc"
         id="path4236"
         d="m 140.94842,1527.7299 h -14.51886 c 0,0 0.019,51.8997 -15.33832,51.8997 8.74098,47.2559 10.02196,36.9421 10.84143,46.7757 8.77326,5.3489 16.35419,6.3692 19.73225,5.9823"
         style="fill:#ffffff;fill-opacity:1;fill-rule:evenodd;stroke:none;stroke-width:3.325;stroke-linecap:butt;stroke-linejoin:round;stroke-miterlimit:4;stroke-opacity:1"
         inkscape:connector-curvature="0" />
      <path
         sodipodi:nodetypes="ccccc"
         id="path4237"
         d="m 140.94842,1527.2684 h -14.51886 c 0,0 0.019,51.8997 -15.33832,51.8997 8.74098,47.2559 10.02196,36.9421 10.84143,46.7757 10.61473,-5.0767 18.56396,-6.1416 19.38343,3.692"
         style="fill:#ffffff;fill-opacity:1;fill-rule:evenodd;stroke:none;stroke-width:3.325;stroke-linecap:butt;stroke-linejoin:round;stroke-miterlimit:4;stroke-opacity:1"
         inkscape:connector-curvature="0" />
      <path
         sodipodi:nodetypes="cccc"
         id="path4238"
         d="m 140.94842,1527.2684 h -14.51886 c 0,0 0.019,51.8997 -15.33832,51.8997 8.74098,47.2559 9.56045,38.7881 10.37992,48.6217"
         style="fill:none;fill-opacity:0.75;fill-rule:evenodd;stroke:#000000;stroke-width:3.325;stroke-linecap:butt;stroke-linejoin:round;stroke-miterlimit:4;stroke-opacity:1"
         inkscape:connector-curvature="0" />
      <path
         sodipodi:nodetypes="cccc"
         id="use4239"
         d="m 138.59128,1527.2684 h 14.51886 c 0,0 -0.019,51.8997 15.33832,51.8997 -8.74098,47.2559 -9.56045,38.7881 -10.37992,48.6217"
         style="fill:none;fill-opacity:0.75;fill-rule:evenodd;stroke:#000000;stroke-width:3.325;stroke-linecap:butt;stroke-linejoin:round;stroke-miterlimit:4;stroke-opacity:1"
         inkscape:connector-curvature="0" />
      <path
         id="path4240"
         d="m 140.12896,1527.5699 v 52.9355"
         style="fill:none;fill-opacity:0.75;fill-rule:evenodd;stroke:#000000;stroke-width:3.325;stroke-linecap:butt;stroke-linejoin:miter;stroke-miterlimit:4;stroke-opacity:1"
         inkscape:connector-curvature="0" />
      <path
         transform="matrix(1.065958,0.05034507,-0.03429285,0.726085,40.01797,415.8423)"
         style="color:#000000;display:block;visibility:visible;fill:#000000;fill-opacity:1;fill-rule:nonzero;stroke:none;stroke-width:3pt;marker:none"
         d="m 155.15253,1610.5809 c 0,10.4094 -4.21921,18.8478 -9.42388,18.8478 -5.20466,0 -9.42387,-8.4384 -9.42387,-18.8478 0,-10.4093 4.21921,-18.8477 9.42387,-18.8477 5.20467,0 9.42388,8.4384 9.42388,18.8477 z"
         id="path4241"
         inkscape:connector-curvature="0" />
    </g>
    <g
       style="display:block"
       transform="matrix(0.22117,-0.127691,0.09762401,0.16909,-99.534381,-194.961)"
       id="use5795">
      <path
         sodipodi:nodetypes="ccccc"
         id="use4243"
         d="m 139.04475,1527.7299 h 14.51886 c 0,0 -0.0189,51.8997 15.3384,51.8997 -8.7409,47.2559 -10.0219,36.9421 -10.84135,46.7757 -8.77325,5.3489 -16.35418,6.3692 -19.73224,5.9823"
         style="fill:#ffffff;fill-opacity:1;fill-rule:evenodd;stroke:none;stroke-width:3.325;stroke-linecap:butt;stroke-linejoin:round;stroke-miterlimit:4;stroke-opacity:1"
         inkscape:connector-curvature="0" />
      <path
         sodipodi:nodetypes="ccccc"
         id="path4244"
         d="m 140.94842,1527.7299 h -14.51886 c 0,0 0.019,51.8997 -15.33832,51.8997 8.74098,47.2559 10.02196,36.9421 10.84143,46.7757 8.77326,5.3489 16.35419,6.3692 19.73225,5.9823"
         style="fill:#ffffff;fill-opacity:1;fill-rule:evenodd;stroke:none;stroke-width:3.325;stroke-linecap:butt;stroke-linejoin:round;stroke-miterlimit:4;stroke-opacity:1"
         inkscape:connector-curvature="0" />
      <path
         sodipodi:nodetypes="ccccc"
         id="path4245"
         d="m 140.94842,1527.2684 h -14.51886 c 0,0 0.019,51.8997 -15.33832,51.8997 8.74098,47.2559 10.02196,36.9421 10.84143,46.7757 10.61473,-5.0767 18.56396,-6.1416 19.38343,3.692"
         style="fill:#ffffff;fill-opacity:1;fill-rule:evenodd;stroke:none;stroke-width:3.325;stroke-linecap:butt;stroke-linejoin:round;stroke-miterlimit:4;stroke-opacity:1"
         inkscape:connector-curvature="0" />
      <path
         sodipodi:nodetypes="cccc"
         id="path4246"
         d="m 140.94842,1527.2684 h -14.51886 c 0,0 0.019,51.8997 -15.33832,51.8997 8.74098,47.2559 9.56045,38.7881 10.37992,48.6217"
         style="fill:none;fill-opacity:0.75;fill-rule:evenodd;stroke:#000000;stroke-width:3.325;stroke-linecap:butt;stroke-linejoin:round;stroke-miterlimit:4;stroke-opacity:1"
         inkscape:connector-curvature="0" />
      <path
         sodipodi:nodetypes="cccc"
         id="use4247"
         d="m 138.59128,1527.2684 h 14.51886 c 0,0 -0.019,51.8997 15.33832,51.8997 -8.74098,47.2559 -9.56045,38.7881 -10.37992,48.6217"
         style="fill:none;fill-opacity:0.75;fill-rule:evenodd;stroke:#000000;stroke-width:3.325;stroke-linecap:butt;stroke-linejoin:round;stroke-miterlimit:4;stroke-opacity:1"
         inkscape:connector-curvature="0" />
      <path
         id="path4248"
         d="m 140.12896,1527.5699 v 52.9355"
         style="fill:none;fill-opacity:0.75;fill-rule:evenodd;stroke:#000000;stroke-width:3.325;stroke-linecap:butt;stroke-linejoin:miter;stroke-miterlimit:4;stroke-opacity:1"
         inkscape:connector-curvature="0" />
      <path
         transform="matrix(1.065958,0.05034507,-0.03429285,0.726085,40.01797,415.8423)"
         style="color:#000000;display:block;visibility:visible;fill:#000000;fill-opacity:1;fill-rule:nonzero;stroke:none;stroke-width:3pt;marker:none"
         d="m 155.15253,1610.5809 c 0,10.4094 -4.21921,18.8478 -9.42388,18.8478 -5.20466,0 -9.42387,-8.4384 -9.42387,-18.8478 0,-10.4093 4.21921,-18.8477 9.42387,-18.8477 5.20467,0 9.42388,8.4384 9.42388,18.8477 z"
         id="path4249"
         inkscape:connector-curvature="0" />
    </g>
    <g
       style="display:block"
       transform="matrix(0.22117,-0.127691,0.09762401,0.16909,-103.79411,-130.463)"
       id="use5796">
      <path
         sodipodi:nodetypes="ccccc"
         id="use4251"
         d="m 139.04475,1527.7299 h 14.51886 c 0,0 -0.0189,51.8997 15.3384,51.8997 -8.7409,47.2559 -10.0219,36.9421 -10.84135,46.7757 -8.77325,5.3489 -16.35418,6.3692 -19.73224,5.9823"
         style="fill:#ffffff;fill-opacity:1;fill-rule:evenodd;stroke:none;stroke-width:3.325;stroke-linecap:butt;stroke-linejoin:round;stroke-miterlimit:4;stroke-opacity:1"
         inkscape:connector-curvature="0" />
      <path
         sodipodi:nodetypes="ccccc"
         id="path4252"
         d="m 140.94842,1527.7299 h -14.51886 c 0,0 0.019,51.8997 -15.33832,51.8997 8.74098,47.2559 10.02196,36.9421 10.84143,46.7757 8.77326,5.3489 16.35419,6.3692 19.73225,5.9823"
         style="fill:#ffffff;fill-opacity:1;fill-rule:evenodd;stroke:none;stroke-width:3.325;stroke-linecap:butt;stroke-linejoin:round;stroke-miterlimit:4;stroke-opacity:1"
         inkscape:connector-curvature="0" />
      <path
         sodipodi:nodetypes="ccccc"
         id="path4253"
         d="m 140.94842,1527.2684 h -14.51886 c 0,0 0.019,51.8997 -15.33832,51.8997 8.74098,47.2559 10.02196,36.9421 10.84143,46.7757 10.61473,-5.0767 18.56396,-6.1416 19.38343,3.692"
         style="fill:#ffffff;fill-opacity:1;fill-rule:evenodd;stroke:none;stroke-width:3.325;stroke-linecap:butt;stroke-linejoin:round;stroke-miterlimit:4;stroke-opacity:1"
         inkscape:connector-curvature="0" />
      <path
         sodipodi:nodetypes="cccc"
         id="path4254"
         d="m 140.94842,1527.2684 h -14.51886 c 0,0 0.019,51.8997 -15.33832,51.8997 8.74098,47.2559 9.56045,38.7881 10.37992,48.6217"
         style="fill:none;fill-opacity:0.75;fill-rule:evenodd;stroke:#000000;stroke-width:3.325;stroke-linecap:butt;stroke-linejoin:round;stroke-miterlimit:4;stroke-opacity:1"
         inkscape:connector-curvature="0" />
      <path
         sodipodi:nodetypes="cccc"
         id="use4255"
         d="m 138.59128,1527.2684 h 14.51886 c 0,0 -0.019,51.8997 15.33832,51.8997 -8.74098,47.2559 -9.56045,38.7881 -10.37992,48.6217"
         style="fill:none;fill-opacity:0.75;fill-rule:evenodd;stroke:#000000;stroke-width:3.325;stroke-linecap:butt;stroke-linejoin:round;stroke-miterlimit:4;stroke-opacity:1"
         inkscape:connector-curvature="0" />
      <path
         id="path4256"
         d="m 140.12896,1527.5699 v 52.9355"
         style="fill:none;fill-opacity:0.75;fill-rule:evenodd;stroke:#000000;stroke-width:3.325;stroke-linecap:butt;stroke-linejoin:miter;stroke-miterlimit:4;stroke-opacity:1"
         inkscape:connector-curvature="0" />
      <ellipse
         transform="matrix(1.065958,0.05034507,-0.03429285,0.726085,40.01797,415.8423)"
         id="path4257"
         style="color:#000000;display:block;visibility:visible;fill:#000000;fill-opacity:1;fill-rule:nonzero;stroke:none;stroke-width:3pt;stroke-linecap:butt;stroke-linejoin:miter;stroke-miterlimit:4;stroke-dashoffset:0;stroke-opacity:1;marker:none;marker-start:none;marker-mid:none;marker-end:none"
         cx="145.72865"
         cy="1610.5809"
         rx="9.4238768"
         ry="18.847754" />
    </g>
    <g
       style="display:block"
       transform="matrix(0.22117,-0.127691,0.09762401,0.16909,-134.92921,-176.305)"
       id="use5797">
      <path
         sodipodi:nodetypes="ccccc"
         id="use4259"
         d="m 139.04475,1527.7299 h 14.51886 c 0,0 -0.0189,51.8997 15.3384,51.8997 -8.7409,47.2559 -10.0219,36.9421 -10.84135,46.7757 -8.77325,5.3489 -16.35418,6.3692 -19.73224,5.9823"
         style="fill:#ffffff;fill-opacity:1;fill-rule:evenodd;stroke:none;stroke-width:3.325;stroke-linecap:butt;stroke-linejoin:round;stroke-miterlimit:4;stroke-opacity:1"
         inkscape:connector-curvature="0" />
      <path
         sodipodi:nodetypes="ccccc"
         id="path4260"
         d="m 140.94842,1527.7299 h -14.51886 c 0,0 0.019,51.8997 -15.33832,51.8997 8.74098,47.2559 10.02196,36.9421 10.84143,46.7757 8.77326,5.3489 16.35419,6.3692 19.73225,5.9823"
         style="fill:#ffffff;fill-opacity:1;fill-rule:evenodd;stroke:none;stroke-width:3.325;stroke-linecap:butt;stroke-linejoin:round;stroke-miterlimit:4;stroke-opacity:1"
         inkscape:connector-curvature="0" />
      <path
         sodipodi:nodetypes="ccccc"
         id="path4261"
         d="m 140.94842,1527.2684 h -14.51886 c 0,0 0.019,51.8997 -15.33832,51.8997 8.74098,47.2559 10.02196,36.9421 10.84143,46.7757 10.61473,-5.0767 18.56396,-6.1416 19.38343,3.692"
         style="fill:#ffffff;fill-opacity:1;fill-rule:evenodd;stroke:none;stroke-width:3.325;stroke-linecap:butt;stroke-linejoin:round;stroke-miterlimit:4;stroke-opacity:1"
         inkscape:connector-curvature="0" />
      <path
         sodipodi:nodetypes="cccc"
         id="path4262"
         d="m 140.94842,1527.2684 h -14.51886 c 0,0 0.019,51.8997 -15.33832,51.8997 8.74098,47.2559 9.56045,38.7881 10.37992,48.6217"
         style="fill:none;fill-opacity:0.75;fill-rule:evenodd;stroke:#000000;stroke-width:3.325;stroke-linecap:butt;stroke-linejoin:round;stroke-miterlimit:4;stroke-opacity:1"
         inkscape:connector-curvature="0" />
      <path
         sodipodi:nodetypes="cccc"
         id="use4263"
         d="m 138.59128,1527.2684 h 14.51886 c 0,0 -0.019,51.8997 15.33832,51.8997 -8.74098,47.2559 -9.56045,38.7881 -10.37992,48.6217"
         style="fill:none;fill-opacity:0.75;fill-rule:evenodd;stroke:#000000;stroke-width:3.325;stroke-linecap:butt;stroke-linejoin:round;stroke-miterlimit:4;stroke-opacity:1"
         inkscape:connector-curvature="0" />
      <path
         id="path4264"
         d="m 140.12896,1527.5699 v 52.9355"
         style="fill:none;fill-opacity:0.75;fill-rule:evenodd;stroke:#000000;stroke-width:3.325;stroke-linecap:butt;stroke-linejoin:miter;stroke-miterlimit:4;stroke-opacity:1"
         inkscape:connector-curvature="0" />
      <path
         transform="matrix(1.065958,0.05034507,-0.03429285,0.726085,40.01797,415.8423)"
         style="color:#000000;display:block;visibility:visible;fill:#000000;fill-opacity:1;fill-rule:nonzero;stroke:none;stroke-width:3pt;marker:none"
         d="m 155.15253,1610.5809 c 0,10.4094 -4.21921,18.8478 -9.42388,18.8478 -5.20466,0 -9.42387,-8.4384 -9.42387,-18.8478 0,-10.4093 4.21921,-18.8477 9.42387,-18.8477 5.20467,0 9.42388,8.4384 9.42388,18.8477 z"
         id="path4265"
         inkscape:connector-curvature="0" />
    </g>
    <g
       style="display:block"
       transform="matrix(0.235542,-0.09870109,0.07545923,0.180077,-33.851241,-207.098)"
       id="use6461">
      <path
         sodipodi:nodetypes="ccccc"
         id="use4267"
         d="m 139.04475,1527.7299 h 14.51886 c 0,0 -0.0189,51.8997 15.3384,51.8997 -8.7409,47.2559 -10.0219,36.9421 -10.84135,46.7757 -8.77325,5.3489 -16.35418,6.3692 -19.73224,5.9823"
         style="fill:#ffffff;fill-opacity:1;fill-rule:evenodd;stroke:none;stroke-width:3.325;stroke-linecap:butt;stroke-linejoin:round;stroke-miterlimit:4;stroke-opacity:1"
         inkscape:connector-curvature="0" />
      <path
         sodipodi:nodetypes="ccccc"
         id="path4268"
         d="m 140.94842,1527.7299 h -14.51886 c 0,0 0.019,51.8997 -15.33832,51.8997 8.74098,47.2559 10.02196,36.9421 10.84143,46.7757 8.77326,5.3489 16.35419,6.3692 19.73225,5.9823"
         style="fill:#ffffff;fill-opacity:1;fill-rule:evenodd;stroke:none;stroke-width:3.325;stroke-linecap:butt;stroke-linejoin:round;stroke-miterlimit:4;stroke-opacity:1"
         inkscape:connector-curvature="0" />
      <path
         sodipodi:nodetypes="ccccc"
         id="path4269"
         d="m 140.94842,1527.2684 h -14.51886 c 0,0 0.019,51.8997 -15.33832,51.8997 8.74098,47.2559 10.02196,36.9421 10.84143,46.7757 10.61473,-5.0767 18.56396,-6.1416 19.38343,3.692"
         style="fill:#ffffff;fill-opacity:1;fill-rule:evenodd;stroke:none;stroke-width:3.325;stroke-linecap:butt;stroke-linejoin:round;stroke-miterlimit:4;stroke-opacity:1"
         inkscape:connector-curvature="0" />
      <path
         sodipodi:nodetypes="cccc"
         id="path4270"
         d="m 140.94842,1527.2684 h -14.51886 c 0,0 0.019,51.8997 -15.33832,51.8997 8.74098,47.2559 9.56045,38.7881 10.37992,48.6217"
         style="fill:none;fill-opacity:0.75;fill-rule:evenodd;stroke:#000000;stroke-width:3.325;stroke-linecap:butt;stroke-linejoin:round;stroke-miterlimit:4;stroke-opacity:1"
         inkscape:connector-curvature="0" />
      <path
         sodipodi:nodetypes="cccc"
         id="use4271"
         d="m 138.59128,1527.2684 h 14.51886 c 0,0 -0.019,51.8997 15.33832,51.8997 -8.74098,47.2559 -9.56045,38.7881 -10.37992,48.6217"
         style="fill:none;fill-opacity:0.75;fill-rule:evenodd;stroke:#000000;stroke-width:3.325;stroke-linecap:butt;stroke-linejoin:round;stroke-miterlimit:4;stroke-opacity:1"
         inkscape:connector-curvature="0" />
      <path
         id="path4272"
         d="m 140.12896,1527.5699 v 52.9355"
         style="fill:none;fill-opacity:0.75;fill-rule:evenodd;stroke:#000000;stroke-width:3.325;stroke-linecap:butt;stroke-linejoin:miter;stroke-miterlimit:4;stroke-opacity:1"
         inkscape:connector-curvature="0" />
      <path
         transform="matrix(1.065958,0.05034507,-0.03429285,0.726085,40.01797,415.8423)"
         style="color:#000000;display:block;visibility:visible;fill:#000000;fill-opacity:1;fill-rule:nonzero;stroke:none;stroke-width:3pt;marker:none"
         d="m 155.15253,1610.5809 c 0,10.4094 -4.21921,18.8478 -9.42388,18.8478 -5.20466,0 -9.42387,-8.4384 -9.42387,-18.8478 0,-10.4093 4.21921,-18.8477 9.42387,-18.8477 5.20467,0 9.42388,8.4384 9.42388,18.8477 z"
         id="path4273"
         inkscape:connector-curvature="0" />
    </g>
    <g
       style="display:block"
       transform="matrix(0.127692,-0.221169,0.16909,0.09762466,-148.98911,-85.067)"
       id="use6462">
      <path
         sodipodi:nodetypes="ccccc"
         id="use4275"
         d="m 139.04475,1527.7299 h 14.51886 c 0,0 -0.0189,51.8997 15.3384,51.8997 -8.7409,47.2559 -10.0219,36.9421 -10.84135,46.7757 -8.77325,5.3489 -16.35418,6.3692 -19.73224,5.9823"
         style="fill:#ffffff;fill-opacity:1;fill-rule:evenodd;stroke:none;stroke-width:3.325;stroke-linecap:butt;stroke-linejoin:round;stroke-miterlimit:4;stroke-opacity:1"
         inkscape:connector-curvature="0" />
      <path
         sodipodi:nodetypes="ccccc"
         id="path4276"
         d="m 140.94842,1527.7299 h -14.51886 c 0,0 0.019,51.8997 -15.33832,51.8997 8.74098,47.2559 10.02196,36.9421 10.84143,46.7757 8.77326,5.3489 16.35419,6.3692 19.73225,5.9823"
         style="fill:#ffffff;fill-opacity:1;fill-rule:evenodd;stroke:none;stroke-width:3.325;stroke-linecap:butt;stroke-linejoin:round;stroke-miterlimit:4;stroke-opacity:1"
         inkscape:connector-curvature="0" />
      <path
         sodipodi:nodetypes="ccccc"
         id="path4277"
         d="m 140.94842,1527.2684 h -14.51886 c 0,0 0.019,51.8997 -15.33832,51.8997 8.74098,47.2559 10.02196,36.9421 10.84143,46.7757 10.61473,-5.0767 18.56396,-6.1416 19.38343,3.692"
         style="fill:#ffffff;fill-opacity:1;fill-rule:evenodd;stroke:none;stroke-width:3.325;stroke-linecap:butt;stroke-linejoin:round;stroke-miterlimit:4;stroke-opacity:1"
         inkscape:connector-curvature="0" />
      <path
         sodipodi:nodetypes="cccc"
         id="path4278"
         d="m 140.94842,1527.2684 h -14.51886 c 0,0 0.019,51.8997 -15.33832,51.8997 8.74098,47.2559 9.56045,38.7881 10.37992,48.6217"
         style="fill:none;fill-opacity:0.75;fill-rule:evenodd;stroke:#000000;stroke-width:3.325;stroke-linecap:butt;stroke-linejoin:round;stroke-miterlimit:4;stroke-opacity:1"
         inkscape:connector-curvature="0" />
      <path
         sodipodi:nodetypes="cccc"
         id="use4279"
         d="m 138.59128,1527.2684 h 14.51886 c 0,0 -0.019,51.8997 15.33832,51.8997 -8.74098,47.2559 -9.56045,38.7881 -10.37992,48.6217"
         style="fill:none;fill-opacity:0.75;fill-rule:evenodd;stroke:#000000;stroke-width:3.325;stroke-linecap:butt;stroke-linejoin:round;stroke-miterlimit:4;stroke-opacity:1"
         inkscape:connector-curvature="0" />
      <path
         id="path4280"
         d="m 140.12896,1527.5699 v 52.9355"
         style="fill:none;fill-opacity:0.75;fill-rule:evenodd;stroke:#000000;stroke-width:3.325;stroke-linecap:butt;stroke-linejoin:miter;stroke-miterlimit:4;stroke-opacity:1"
         inkscape:connector-curvature="0" />
      <path
         transform="matrix(1.065958,0.05034507,-0.03429285,0.726085,40.01797,415.8423)"
         style="color:#000000;display:block;visibility:visible;fill:#000000;fill-opacity:1;fill-rule:nonzero;stroke:none;stroke-width:3pt;marker:none"
         d="m 155.15253,1610.5809 c 0,10.4094 -4.21921,18.8478 -9.42388,18.8478 -5.20466,0 -9.42387,-8.4384 -9.42387,-18.8478 0,-10.4093 4.21921,-18.8477 9.42387,-18.8477 5.20467,0 9.42388,8.4384 9.42388,18.8477 z"
         id="path4281"
         inkscape:connector-curvature="0" />
    </g>
    <g
       style="display:block"
       transform="matrix(0.180585,-0.180585,0.138062,0.138063,-61.027521,-141.125)"
       id="use6463">
      <path
         sodipodi:nodetypes="ccccc"
         id="use4283"
         d="m 139.04475,1527.7299 h 14.51886 c 0,0 -0.0189,51.8997 15.3384,51.8997 -8.7409,47.2559 -10.0219,36.9421 -10.84135,46.7757 -8.77325,5.3489 -16.35418,6.3692 -19.73224,5.9823"
         style="fill:#ffffff;fill-opacity:1;fill-rule:evenodd;stroke:none;stroke-width:3.325;stroke-linecap:butt;stroke-linejoin:round;stroke-miterlimit:4;stroke-opacity:1"
         inkscape:connector-curvature="0" />
      <path
         sodipodi:nodetypes="ccccc"
         id="path4284"
         d="m 140.94842,1527.7299 h -14.51886 c 0,0 0.019,51.8997 -15.33832,51.8997 8.74098,47.2559 10.02196,36.9421 10.84143,46.7757 8.77326,5.3489 16.35419,6.3692 19.73225,5.9823"
         style="fill:#ffffff;fill-opacity:1;fill-rule:evenodd;stroke:none;stroke-width:3.325;stroke-linecap:butt;stroke-linejoin:round;stroke-miterlimit:4;stroke-opacity:1"
         inkscape:connector-curvature="0" />
      <path
         sodipodi:nodetypes="ccccc"
         id="path4285"
         d="m 140.94842,1527.2684 h -14.51886 c 0,0 0.019,51.8997 -15.33832,51.8997 8.74098,47.2559 10.02196,36.9421 10.84143,46.7757 10.61473,-5.0767 18.56396,-6.1416 19.38343,3.692"
         style="fill:#ffffff;fill-opacity:1;fill-rule:evenodd;stroke:none;stroke-width:3.325;stroke-linecap:butt;stroke-linejoin:round;stroke-miterlimit:4;stroke-opacity:1"
         inkscape:connector-curvature="0" />
      <path
         sodipodi:nodetypes="cccc"
         id="path4286"
         d="m 140.94842,1527.2684 h -14.51886 c 0,0 0.019,51.8997 -15.33832,51.8997 8.74098,47.2559 9.56045,38.7881 10.37992,48.6217"
         style="fill:none;fill-opacity:0.75;fill-rule:evenodd;stroke:#000000;stroke-width:3.325;stroke-linecap:butt;stroke-linejoin:round;stroke-miterlimit:4;stroke-opacity:1"
         inkscape:connector-curvature="0" />
      <path
         sodipodi:nodetypes="cccc"
         id="use4287"
         d="m 138.59128,1527.2684 h 14.51886 c 0,0 -0.019,51.8997 15.33832,51.8997 -8.74098,47.2559 -9.56045,38.7881 -10.37992,48.6217"
         style="fill:none;fill-opacity:0.75;fill-rule:evenodd;stroke:#000000;stroke-width:3.325;stroke-linecap:butt;stroke-linejoin:round;stroke-miterlimit:4;stroke-opacity:1"
         inkscape:connector-curvature="0" />
      <path
         id="path4288"
         d="m 140.12896,1527.5699 v 52.9355"
         style="fill:none;fill-opacity:0.75;fill-rule:evenodd;stroke:#000000;stroke-width:3.325;stroke-linecap:butt;stroke-linejoin:miter;stroke-miterlimit:4;stroke-opacity:1"
         inkscape:connector-curvature="0" />
      <path
         transform="matrix(1.065958,0.05034507,-0.03429285,0.726085,40.01797,415.8423)"
         style="color:#000000;display:block;visibility:visible;fill:#000000;fill-opacity:1;fill-rule:nonzero;stroke:none;stroke-width:3pt;marker:none"
         d="m 155.15253,1610.5809 c 0,10.4094 -4.21921,18.8478 -9.42388,18.8478 -5.20466,0 -9.42387,-8.4384 -9.42387,-18.8478 0,-10.4093 4.21921,-18.8477 9.42387,-18.8477 5.20467,0 9.42388,8.4384 9.42388,18.8477 z"
         id="path4289"
         inkscape:connector-curvature="0" />
    </g>
    <g
       style="display:block"
       transform="matrix(0.242248,-0.08085345,0.06181697,0.185204,47.662749,-169.927)"
       id="use6464">
      <path
         sodipodi:nodetypes="ccccc"
         id="use4291"
         d="m 139.04475,1527.7299 h 14.51886 c 0,0 -0.0189,51.8997 15.3384,51.8997 -8.7409,47.2559 -10.0219,36.9421 -10.84135,46.7757 -8.77325,5.3489 -16.35418,6.3692 -19.73224,5.9823"
         style="fill:#ffffff;fill-opacity:1;fill-rule:evenodd;stroke:none;stroke-width:3.325;stroke-linecap:butt;stroke-linejoin:round;stroke-miterlimit:4;stroke-opacity:1"
         inkscape:connector-curvature="0" />
      <path
         sodipodi:nodetypes="ccccc"
         id="path4292"
         d="m 140.94842,1527.7299 h -14.51886 c 0,0 0.019,51.8997 -15.33832,51.8997 8.74098,47.2559 10.02196,36.9421 10.84143,46.7757 8.77326,5.3489 16.35419,6.3692 19.73225,5.9823"
         style="fill:#ffffff;fill-opacity:1;fill-rule:evenodd;stroke:none;stroke-width:3.325;stroke-linecap:butt;stroke-linejoin:round;stroke-miterlimit:4;stroke-opacity:1"
         inkscape:connector-curvature="0" />
      <path
         sodipodi:nodetypes="ccccc"
         id="path4293"
         d="m 140.94842,1527.2684 h -14.51886 c 0,0 0.019,51.8997 -15.33832,51.8997 8.74098,47.2559 10.02196,36.9421 10.84143,46.7757 10.61473,-5.0767 18.56396,-6.1416 19.38343,3.692"
         style="fill:#ffffff;fill-opacity:1;fill-rule:evenodd;stroke:none;stroke-width:3.325;stroke-linecap:butt;stroke-linejoin:round;stroke-miterlimit:4;stroke-opacity:1"
         inkscape:connector-curvature="0" />
      <path
         sodipodi:nodetypes="cccc"
         id="path4294"
         d="m 140.94842,1527.2684 h -14.51886 c 0,0 0.019,51.8997 -15.33832,51.8997 8.74098,47.2559 9.56045,38.7881 10.37992,48.6217"
         style="fill:none;fill-opacity:0.75;fill-rule:evenodd;stroke:#000000;stroke-width:3.325;stroke-linecap:butt;stroke-linejoin:round;stroke-miterlimit:4;stroke-opacity:1"
         inkscape:connector-curvature="0" />
      <path
         sodipodi:nodetypes="cccc"
         id="use4295"
         d="m 138.59128,1527.2684 h 14.51886 c 0,0 -0.019,51.8997 15.33832,51.8997 -8.74098,47.2559 -9.56045,38.7881 -10.37992,48.6217"
         style="fill:none;fill-opacity:0.75;fill-rule:evenodd;stroke:#000000;stroke-width:3.325;stroke-linecap:butt;stroke-linejoin:round;stroke-miterlimit:4;stroke-opacity:1"
         inkscape:connector-curvature="0" />
      <path
         id="path4296"
         d="m 140.12896,1527.5699 v 52.9355"
         style="fill:none;fill-opacity:0.75;fill-rule:evenodd;stroke:#000000;stroke-width:3.325;stroke-linecap:butt;stroke-linejoin:miter;stroke-miterlimit:4;stroke-opacity:1"
         inkscape:connector-curvature="0" />
      <path
         transform="matrix(1.065958,0.05034507,-0.03429285,0.726085,40.01797,415.8423)"
         style="color:#000000;display:block;visibility:visible;fill:#000000;fill-opacity:1;fill-rule:nonzero;stroke:none;stroke-width:3pt;marker:none"
         d="m 155.15253,1610.5809 c 0,10.4094 -4.21921,18.8478 -9.42388,18.8478 -5.20466,0 -9.42387,-8.4384 -9.42387,-18.8478 0,-10.4093 4.21921,-18.8477 9.42387,-18.8477 5.20467,0 9.42388,8.4384 9.42388,18.8477 z"
         id="path4297"
         inkscape:connector-curvature="0" />
    </g>
    <g
       style="display:block"
       transform="matrix(0.213067,-0.140797,0.107643,0.162896,-66.985391,-129.522)"
       id="use6465">
      <path
         sodipodi:nodetypes="ccccc"
         id="use4299"
         d="m 139.04475,1527.7299 h 14.51886 c 0,0 -0.0189,51.8997 15.3384,51.8997 -8.7409,47.2559 -10.0219,36.9421 -10.84135,46.7757 -8.77325,5.3489 -16.35418,6.3692 -19.73224,5.9823"
         style="fill:#ffffff;fill-opacity:1;fill-rule:evenodd;stroke:none;stroke-width:3.325;stroke-linecap:butt;stroke-linejoin:round;stroke-miterlimit:4;stroke-opacity:1"
         inkscape:connector-curvature="0" />
      <path
         sodipodi:nodetypes="ccccc"
         id="path4300"
         d="m 140.94842,1527.7299 h -14.51886 c 0,0 0.019,51.8997 -15.33832,51.8997 8.74098,47.2559 10.02196,36.9421 10.84143,46.7757 8.77326,5.3489 16.35419,6.3692 19.73225,5.9823"
         style="fill:#ffffff;fill-opacity:1;fill-rule:evenodd;stroke:none;stroke-width:3.325;stroke-linecap:butt;stroke-linejoin:round;stroke-miterlimit:4;stroke-opacity:1"
         inkscape:connector-curvature="0" />
      <path
         sodipodi:nodetypes="ccccc"
         id="path4301"
         d="m 140.94842,1527.2684 h -14.51886 c 0,0 0.019,51.8997 -15.33832,51.8997 8.74098,47.2559 10.02196,36.9421 10.84143,46.7757 10.61473,-5.0767 18.56396,-6.1416 19.38343,3.692"
         style="fill:#ffffff;fill-opacity:1;fill-rule:evenodd;stroke:none;stroke-width:3.325;stroke-linecap:butt;stroke-linejoin:round;stroke-miterlimit:4;stroke-opacity:1"
         inkscape:connector-curvature="0" />
      <path
         sodipodi:nodetypes="cccc"
         id="path4302"
         d="m 140.94842,1527.2684 h -14.51886 c 0,0 0.019,51.8997 -15.33832,51.8997 8.74098,47.2559 9.56045,38.7881 10.37992,48.6217"
         style="fill:none;fill-opacity:0.75;fill-rule:evenodd;stroke:#000000;stroke-width:3.325;stroke-linecap:butt;stroke-linejoin:round;stroke-miterlimit:4;stroke-opacity:1"
         inkscape:connector-curvature="0" />
      <path
         sodipodi:nodetypes="cccc"
         id="use4303"
         d="m 138.59128,1527.2684 h 14.51886 c 0,0 -0.019,51.8997 15.33832,51.8997 -8.74098,47.2559 -9.56045,38.7881 -10.37992,48.6217"
         style="fill:none;fill-opacity:0.75;fill-rule:evenodd;stroke:#000000;stroke-width:3.325;stroke-linecap:butt;stroke-linejoin:round;stroke-miterlimit:4;stroke-opacity:1"
         inkscape:connector-curvature="0" />
      <path
         id="path4304"
         d="m 140.12896,1527.5699 v 52.9355"
         style="fill:none;fill-opacity:0.75;fill-rule:evenodd;stroke:#000000;stroke-width:3.325;stroke-linecap:butt;stroke-linejoin:miter;stroke-miterlimit:4;stroke-opacity:1"
         inkscape:connector-curvature="0" />
      <path
         transform="matrix(1.065958,0.05034507,-0.03429285,0.726085,40.01797,415.8423)"
         style="color:#000000;display:block;visibility:visible;fill:#000000;fill-opacity:1;fill-rule:nonzero;stroke:none;stroke-width:3pt;marker:none"
         d="m 155.15253,1610.5809 c 0,10.4094 -4.21921,18.8478 -9.42388,18.8478 -5.20466,0 -9.42387,-8.4384 -9.42387,-18.8478 0,-10.4093 4.21921,-18.8477 9.42387,-18.8477 5.20467,0 9.42388,8.4384 9.42388,18.8477 z"
         id="path4305"
         inkscape:connector-curvature="0" />
    </g>
    <g
       style="display:block"
       transform="matrix(0.114122,-0.228469,0.174669,0.08724938,-147.40971,-35.779)"
       id="use6466">
      <path
         sodipodi:nodetypes="ccccc"
         id="use4307"
         d="m 139.04475,1527.7299 h 14.51886 c 0,0 -0.0189,51.8997 15.3384,51.8997 -8.7409,47.2559 -10.0219,36.9421 -10.84135,46.7757 -8.77325,5.3489 -16.35418,6.3692 -19.73224,5.9823"
         style="fill:#ffffff;fill-opacity:1;fill-rule:evenodd;stroke:none;stroke-width:3.325;stroke-linecap:butt;stroke-linejoin:round;stroke-miterlimit:4;stroke-opacity:1"
         inkscape:connector-curvature="0" />
      <path
         sodipodi:nodetypes="ccccc"
         id="path4308"
         d="m 140.94842,1527.7299 h -14.51886 c 0,0 0.019,51.8997 -15.33832,51.8997 8.74098,47.2559 10.02196,36.9421 10.84143,46.7757 8.77326,5.3489 16.35419,6.3692 19.73225,5.9823"
         style="fill:#ffffff;fill-opacity:1;fill-rule:evenodd;stroke:none;stroke-width:3.325;stroke-linecap:butt;stroke-linejoin:round;stroke-miterlimit:4;stroke-opacity:1"
         inkscape:connector-curvature="0" />
      <path
         sodipodi:nodetypes="ccccc"
         id="path4309"
         d="m 140.94842,1527.2684 h -14.51886 c 0,0 0.019,51.8997 -15.33832,51.8997 8.74098,47.2559 10.02196,36.9421 10.84143,46.7757 10.61473,-5.0767 18.56396,-6.1416 19.38343,3.692"
         style="fill:#ffffff;fill-opacity:1;fill-rule:evenodd;stroke:none;stroke-width:3.325;stroke-linecap:butt;stroke-linejoin:round;stroke-miterlimit:4;stroke-opacity:1"
         inkscape:connector-curvature="0" />
      <path
         sodipodi:nodetypes="cccc"
         id="path4310"
         d="m 140.94842,1527.2684 h -14.51886 c 0,0 0.019,51.8997 -15.33832,51.8997 8.74098,47.2559 9.56045,38.7881 10.37992,48.6217"
         style="fill:none;fill-opacity:0.75;fill-rule:evenodd;stroke:#000000;stroke-width:3.325;stroke-linecap:butt;stroke-linejoin:round;stroke-miterlimit:4;stroke-opacity:1"
         inkscape:connector-curvature="0" />
      <path
         sodipodi:nodetypes="cccc"
         id="use4311"
         d="m 138.59128,1527.2684 h 14.51886 c 0,0 -0.019,51.8997 15.33832,51.8997 -8.74098,47.2559 -9.56045,38.7881 -10.37992,48.6217"
         style="fill:none;fill-opacity:0.75;fill-rule:evenodd;stroke:#000000;stroke-width:3.325;stroke-linecap:butt;stroke-linejoin:round;stroke-miterlimit:4;stroke-opacity:1"
         inkscape:connector-curvature="0" />
      <path
         id="path4312"
         d="m 140.12896,1527.5699 v 52.9355"
         style="fill:none;fill-opacity:0.75;fill-rule:evenodd;stroke:#000000;stroke-width:3.325;stroke-linecap:butt;stroke-linejoin:miter;stroke-miterlimit:4;stroke-opacity:1"
         inkscape:connector-curvature="0" />
      <path
         transform="matrix(1.065958,0.05034507,-0.03429285,0.726085,40.01797,415.8423)"
         style="color:#000000;display:block;visibility:visible;fill:#000000;fill-opacity:1;fill-rule:nonzero;stroke:none;stroke-width:3pt;marker:none"
         d="m 155.15253,1610.5809 c 0,10.4094 -4.21921,18.8478 -9.42388,18.8478 -5.20466,0 -9.42387,-8.4384 -9.42387,-18.8478 0,-10.4093 4.21921,-18.8477 9.42387,-18.8477 5.20467,0 9.42388,8.4384 9.42388,18.8477 z"
         id="path4313"
         inkscape:connector-curvature="0" />
    </g>
    <g
       style="display:block"
       transform="matrix(-0.210403,0.144746,-0.110663,-0.160858,412.42209,292.333)"
       id="use6470">
      <path
         sodipodi:nodetypes="ccccc"
         id="use4315"
         d="m 139.04475,1527.7299 h 14.51886 c 0,0 -0.0189,51.8997 15.3384,51.8997 -8.7409,47.2559 -10.0219,36.9421 -10.84135,46.7757 -8.77325,5.3489 -16.35418,6.3692 -19.73224,5.9823"
         style="fill:#ffffff;fill-opacity:1;fill-rule:evenodd;stroke:none;stroke-width:3.325;stroke-linecap:butt;stroke-linejoin:round;stroke-miterlimit:4;stroke-opacity:1"
         inkscape:connector-curvature="0" />
      <path
         sodipodi:nodetypes="ccccc"
         id="path4316"
         d="m 140.94842,1527.7299 h -14.51886 c 0,0 0.019,51.8997 -15.33832,51.8997 8.74098,47.2559 10.02196,36.9421 10.84143,46.7757 8.77326,5.3489 16.35419,6.3692 19.73225,5.9823"
         style="fill:#ffffff;fill-opacity:1;fill-rule:evenodd;stroke:none;stroke-width:3.325;stroke-linecap:butt;stroke-linejoin:round;stroke-miterlimit:4;stroke-opacity:1"
         inkscape:connector-curvature="0" />
      <path
         sodipodi:nodetypes="ccccc"
         id="path4317"
         d="m 140.94842,1527.2684 h -14.51886 c 0,0 0.019,51.8997 -15.33832,51.8997 8.74098,47.2559 10.02196,36.9421 10.84143,46.7757 10.61473,-5.0767 18.56396,-6.1416 19.38343,3.692"
         style="fill:#ffffff;fill-opacity:1;fill-rule:evenodd;stroke:none;stroke-width:3.325;stroke-linecap:butt;stroke-linejoin:round;stroke-miterlimit:4;stroke-opacity:1"
         inkscape:connector-curvature="0" />
      <path
         sodipodi:nodetypes="cccc"
         id="path4318"
         d="m 140.94842,1527.2684 h -14.51886 c 0,0 0.019,51.8997 -15.33832,51.8997 8.74098,47.2559 9.56045,38.7881 10.37992,48.6217"
         style="fill:none;fill-opacity:0.75;fill-rule:evenodd;stroke:#000000;stroke-width:3.325;stroke-linecap:butt;stroke-linejoin:round;stroke-miterlimit:4;stroke-opacity:1"
         inkscape:connector-curvature="0" />
      <path
         sodipodi:nodetypes="cccc"
         id="use4319"
         d="m 138.59128,1527.2684 h 14.51886 c 0,0 -0.019,51.8997 15.33832,51.8997 -8.74098,47.2559 -9.56045,38.7881 -10.37992,48.6217"
         style="fill:none;fill-opacity:0.75;fill-rule:evenodd;stroke:#000000;stroke-width:3.325;stroke-linecap:butt;stroke-linejoin:round;stroke-miterlimit:4;stroke-opacity:1"
         inkscape:connector-curvature="0" />
      <path
         id="path4320"
         d="m 140.12896,1527.5699 v 52.9355"
         style="fill:none;fill-opacity:0.75;fill-rule:evenodd;stroke:#000000;stroke-width:3.325;stroke-linecap:butt;stroke-linejoin:miter;stroke-miterlimit:4;stroke-opacity:1"
         inkscape:connector-curvature="0" />
      <path
         transform="matrix(1.065958,0.05034507,-0.03429285,0.726085,40.01797,415.8423)"
         style="color:#000000;display:block;visibility:visible;fill:#000000;fill-opacity:1;fill-rule:nonzero;stroke:none;stroke-width:3pt;marker:none"
         d="m 155.15253,1610.5809 c 0,10.4094 -4.21921,18.8478 -9.42388,18.8478 -5.20466,0 -9.42387,-8.4384 -9.42387,-18.8478 0,-10.4093 4.21921,-18.8477 9.42387,-18.8477 5.20467,0 9.42388,8.4384 9.42388,18.8477 z"
         id="path4321"
         inkscape:connector-curvature="0" />
    </g>
    <g
       style="display:block"
       transform="matrix(-0.144746,-0.210403,0.160858,-0.110663,-0.94310454,237.007)"
       id="use6471">
      <path
         sodipodi:nodetypes="ccccc"
         id="use4323"
         d="m 139.04475,1527.7299 h 14.51886 c 0,0 -0.0189,51.8997 15.3384,51.8997 -8.7409,47.2559 -10.0219,36.9421 -10.84135,46.7757 -8.77325,5.3489 -16.35418,6.3692 -19.73224,5.9823"
         style="fill:#ffffff;fill-opacity:1;fill-rule:evenodd;stroke:none;stroke-width:3.325;stroke-linecap:butt;stroke-linejoin:round;stroke-miterlimit:4;stroke-opacity:1"
         inkscape:connector-curvature="0" />
      <path
         sodipodi:nodetypes="ccccc"
         id="path4324"
         d="m 140.94842,1527.7299 h -14.51886 c 0,0 0.019,51.8997 -15.33832,51.8997 8.74098,47.2559 10.02196,36.9421 10.84143,46.7757 8.77326,5.3489 16.35419,6.3692 19.73225,5.9823"
         style="fill:#ffffff;fill-opacity:1;fill-rule:evenodd;stroke:none;stroke-width:3.325;stroke-linecap:butt;stroke-linejoin:round;stroke-miterlimit:4;stroke-opacity:1"
         inkscape:connector-curvature="0" />
      <path
         sodipodi:nodetypes="ccccc"
         id="path4325"
         d="m 140.94842,1527.2684 h -14.51886 c 0,0 0.019,51.8997 -15.33832,51.8997 8.74098,47.2559 10.02196,36.9421 10.84143,46.7757 10.61473,-5.0767 18.56396,-6.1416 19.38343,3.692"
         style="fill:#ffffff;fill-opacity:1;fill-rule:evenodd;stroke:none;stroke-width:3.325;stroke-linecap:butt;stroke-linejoin:round;stroke-miterlimit:4;stroke-opacity:1"
         inkscape:connector-curvature="0" />
      <path
         sodipodi:nodetypes="cccc"
         id="path4326"
         d="m 140.94842,1527.2684 h -14.51886 c 0,0 0.019,51.8997 -15.33832,51.8997 8.74098,47.2559 9.56045,38.7881 10.37992,48.6217"
         style="fill:none;fill-opacity:0.75;fill-rule:evenodd;stroke:#000000;stroke-width:3.325;stroke-linecap:butt;stroke-linejoin:round;stroke-miterlimit:4;stroke-opacity:1"
         inkscape:connector-curvature="0" />
      <path
         sodipodi:nodetypes="cccc"
         id="use4327"
         d="m 138.59128,1527.2684 h 14.51886 c 0,0 -0.019,51.8997 15.33832,51.8997 -8.74098,47.2559 -9.56045,38.7881 -10.37992,48.6217"
         style="fill:none;fill-opacity:0.75;fill-rule:evenodd;stroke:#000000;stroke-width:3.325;stroke-linecap:butt;stroke-linejoin:round;stroke-miterlimit:4;stroke-opacity:1"
         inkscape:connector-curvature="0" />
      <path
         id="path4328"
         d="m 140.12896,1527.5699 v 52.9355"
         style="fill:none;fill-opacity:0.75;fill-rule:evenodd;stroke:#000000;stroke-width:3.325;stroke-linecap:butt;stroke-linejoin:miter;stroke-miterlimit:4;stroke-opacity:1"
         inkscape:connector-curvature="0" />
      <path
         transform="matrix(1.065958,0.05034507,-0.03429285,0.726085,40.01797,415.8423)"
         style="color:#000000;display:block;visibility:visible;fill:#000000;fill-opacity:1;fill-rule:nonzero;stroke:none;stroke-width:3pt;marker:none"
         d="m 155.15253,1610.5809 c 0,10.4094 -4.21921,18.8478 -9.42388,18.8478 -5.20466,0 -9.42387,-8.4384 -9.42387,-18.8478 0,-10.4093 4.21921,-18.8477 9.42387,-18.8477 5.20467,0 9.42388,8.4384 9.42388,18.8477 z"
         id="path4329"
         inkscape:connector-curvature="0" />
    </g>
    <g
       style="display:block"
       transform="matrix(0.254588,-0.02015512,0.01540841,0.194641,221.74929,-236.827)"
       id="use6472">
      <path
         sodipodi:nodetypes="ccccc"
         id="use4331"
         d="m 139.04475,1527.7299 h 14.51886 c 0,0 -0.0189,51.8997 15.3384,51.8997 -8.7409,47.2559 -10.0219,36.9421 -10.84135,46.7757 -8.77325,5.3489 -16.35418,6.3692 -19.73224,5.9823"
         style="fill:#ffffff;fill-opacity:1;fill-rule:evenodd;stroke:none;stroke-width:3.325;stroke-linecap:butt;stroke-linejoin:round;stroke-miterlimit:4;stroke-opacity:1"
         inkscape:connector-curvature="0" />
      <path
         sodipodi:nodetypes="ccccc"
         id="path4332"
         d="m 140.94842,1527.7299 h -14.51886 c 0,0 0.019,51.8997 -15.33832,51.8997 8.74098,47.2559 10.02196,36.9421 10.84143,46.7757 8.77326,5.3489 16.35419,6.3692 19.73225,5.9823"
         style="fill:#ffffff;fill-opacity:1;fill-rule:evenodd;stroke:none;stroke-width:3.325;stroke-linecap:butt;stroke-linejoin:round;stroke-miterlimit:4;stroke-opacity:1"
         inkscape:connector-curvature="0" />
      <path
         sodipodi:nodetypes="ccccc"
         id="path4333"
         d="m 140.94842,1527.2684 h -14.51886 c 0,0 0.019,51.8997 -15.33832,51.8997 8.74098,47.2559 10.02196,36.9421 10.84143,46.7757 10.61473,-5.0767 18.56396,-6.1416 19.38343,3.692"
         style="fill:#ffffff;fill-opacity:1;fill-rule:evenodd;stroke:none;stroke-width:3.325;stroke-linecap:butt;stroke-linejoin:round;stroke-miterlimit:4;stroke-opacity:1"
         inkscape:connector-curvature="0" />
      <path
         sodipodi:nodetypes="cccc"
         id="path4334"
         d="m 140.94842,1527.2684 h -14.51886 c 0,0 0.019,51.8997 -15.33832,51.8997 8.74098,47.2559 9.56045,38.7881 10.37992,48.6217"
         style="fill:none;fill-opacity:0.75;fill-rule:evenodd;stroke:#000000;stroke-width:3.325;stroke-linecap:butt;stroke-linejoin:round;stroke-miterlimit:4;stroke-opacity:1"
         inkscape:connector-curvature="0" />
      <path
         sodipodi:nodetypes="cccc"
         id="use4335"
         d="m 138.59128,1527.2684 h 14.51886 c 0,0 -0.019,51.8997 15.33832,51.8997 -8.74098,47.2559 -9.56045,38.7881 -10.37992,48.6217"
         style="fill:none;fill-opacity:0.75;fill-rule:evenodd;stroke:#000000;stroke-width:3.325;stroke-linecap:butt;stroke-linejoin:round;stroke-miterlimit:4;stroke-opacity:1"
         inkscape:connector-curvature="0" />
      <path
         id="path4336"
         d="m 140.12896,1527.5699 v 52.9355"
         style="fill:none;fill-opacity:0.75;fill-rule:evenodd;stroke:#000000;stroke-width:3.325;stroke-linecap:butt;stroke-linejoin:miter;stroke-miterlimit:4;stroke-opacity:1"
         inkscape:connector-curvature="0" />
      <path
         transform="matrix(1.065958,0.05034507,-0.03429285,0.726085,40.01797,415.8423)"
         style="color:#000000;display:block;visibility:visible;fill:#000000;fill-opacity:1;fill-rule:nonzero;stroke:none;stroke-width:3pt;marker:none"
         d="m 155.15253,1610.5809 c 0,10.4094 -4.21921,18.8478 -9.42388,18.8478 -5.20466,0 -9.42387,-8.4384 -9.42387,-18.8478 0,-10.4093 4.21921,-18.8477 9.42387,-18.8477 5.20467,0 9.42388,8.4384 9.42388,18.8477 z"
         id="path4337"
         inkscape:connector-curvature="0" />
    </g>
    <g
       style="display:block"
       transform="matrix(0.02015455,0.254588,-0.194641,0.01540877,547.45399,54.655)"
       id="use6473">
      <path
         sodipodi:nodetypes="ccccc"
         id="use4339"
         d="m 139.04475,1527.7299 h 14.51886 c 0,0 -0.0189,51.8997 15.3384,51.8997 -8.7409,47.2559 -10.0219,36.9421 -10.84135,46.7757 -8.77325,5.3489 -16.35418,6.3692 -19.73224,5.9823"
         style="fill:#ffffff;fill-opacity:1;fill-rule:evenodd;stroke:none;stroke-width:3.325;stroke-linecap:butt;stroke-linejoin:round;stroke-miterlimit:4;stroke-opacity:1"
         inkscape:connector-curvature="0" />
      <path
         sodipodi:nodetypes="ccccc"
         id="path4340"
         d="m 140.94842,1527.7299 h -14.51886 c 0,0 0.019,51.8997 -15.33832,51.8997 8.74098,47.2559 10.02196,36.9421 10.84143,46.7757 8.77326,5.3489 16.35419,6.3692 19.73225,5.9823"
         style="fill:#ffffff;fill-opacity:1;fill-rule:evenodd;stroke:none;stroke-width:3.325;stroke-linecap:butt;stroke-linejoin:round;stroke-miterlimit:4;stroke-opacity:1"
         inkscape:connector-curvature="0" />
      <path
         sodipodi:nodetypes="ccccc"
         id="path4341"
         d="m 140.94842,1527.2684 h -14.51886 c 0,0 0.019,51.8997 -15.33832,51.8997 8.74098,47.2559 10.02196,36.9421 10.84143,46.7757 10.61473,-5.0767 18.56396,-6.1416 19.38343,3.692"
         style="fill:#ffffff;fill-opacity:1;fill-rule:evenodd;stroke:none;stroke-width:3.325;stroke-linecap:butt;stroke-linejoin:round;stroke-miterlimit:4;stroke-opacity:1"
         inkscape:connector-curvature="0" />
      <path
         sodipodi:nodetypes="cccc"
         id="path4342"
         d="m 140.94842,1527.2684 h -14.51886 c 0,0 0.019,51.8997 -15.33832,51.8997 8.74098,47.2559 9.56045,38.7881 10.37992,48.6217"
         style="fill:none;fill-opacity:0.75;fill-rule:evenodd;stroke:#000000;stroke-width:3.325;stroke-linecap:butt;stroke-linejoin:round;stroke-miterlimit:4;stroke-opacity:1"
         inkscape:connector-curvature="0" />
      <path
         sodipodi:nodetypes="cccc"
         id="use4343"
         d="m 138.59128,1527.2684 h 14.51886 c 0,0 -0.019,51.8997 15.33832,51.8997 -8.74098,47.2559 -9.56045,38.7881 -10.37992,48.6217"
         style="fill:none;fill-opacity:0.75;fill-rule:evenodd;stroke:#000000;stroke-width:3.325;stroke-linecap:butt;stroke-linejoin:round;stroke-miterlimit:4;stroke-opacity:1"
         inkscape:connector-curvature="0" />
      <path
         id="path4344"
         d="m 140.12896,1527.5699 v 52.9355"
         style="fill:none;fill-opacity:0.75;fill-rule:evenodd;stroke:#000000;stroke-width:3.325;stroke-linecap:butt;stroke-linejoin:miter;stroke-miterlimit:4;stroke-opacity:1"
         inkscape:connector-curvature="0" />
      <path
         transform="matrix(1.065958,0.05034507,-0.03429285,0.726085,40.01797,415.8423)"
         style="color:#000000;display:block;visibility:visible;fill:#000000;fill-opacity:1;fill-rule:nonzero;stroke:none;stroke-width:3pt;marker:none"
         d="m 155.15253,1610.5809 c 0,10.4094 -4.21921,18.8478 -9.42388,18.8478 -5.20466,0 -9.42387,-8.4384 -9.42387,-18.8478 0,-10.4093 4.21921,-18.8477 9.42387,-18.8477 5.20467,0 9.42388,8.4384 9.42388,18.8477 z"
         id="path4345"
         inkscape:connector-curvature="0" />
    </g>
    <g
       style="display:block"
       transform="matrix(0.254588,-0.02015512,0.01540841,0.194641,206.23539,-220.312)"
       id="use6474">
      <path
         sodipodi:nodetypes="ccccc"
         id="use4347"
         d="m 139.04475,1527.7299 h 14.51886 c 0,0 -0.0189,51.8997 15.3384,51.8997 -8.7409,47.2559 -10.0219,36.9421 -10.84135,46.7757 -8.77325,5.3489 -16.35418,6.3692 -19.73224,5.9823"
         style="fill:#ffffff;fill-opacity:1;fill-rule:evenodd;stroke:none;stroke-width:3.325;stroke-linecap:butt;stroke-linejoin:round;stroke-miterlimit:4;stroke-opacity:1"
         inkscape:connector-curvature="0" />
      <path
         sodipodi:nodetypes="ccccc"
         id="path4348"
         d="m 140.94842,1527.7299 h -14.51886 c 0,0 0.019,51.8997 -15.33832,51.8997 8.74098,47.2559 10.02196,36.9421 10.84143,46.7757 8.77326,5.3489 16.35419,6.3692 19.73225,5.9823"
         style="fill:#ffffff;fill-opacity:1;fill-rule:evenodd;stroke:none;stroke-width:3.325;stroke-linecap:butt;stroke-linejoin:round;stroke-miterlimit:4;stroke-opacity:1"
         inkscape:connector-curvature="0" />
      <path
         sodipodi:nodetypes="ccccc"
         id="path4349"
         d="m 140.94842,1527.2684 h -14.51886 c 0,0 0.019,51.8997 -15.33832,51.8997 8.74098,47.2559 10.02196,36.9421 10.84143,46.7757 10.61473,-5.0767 18.56396,-6.1416 19.38343,3.692"
         style="fill:#ffffff;fill-opacity:1;fill-rule:evenodd;stroke:none;stroke-width:3.325;stroke-linecap:butt;stroke-linejoin:round;stroke-miterlimit:4;stroke-opacity:1"
         inkscape:connector-curvature="0" />
      <path
         sodipodi:nodetypes="cccc"
         id="path4350"
         d="m 140.94842,1527.2684 h -14.51886 c 0,0 0.019,51.8997 -15.33832,51.8997 8.74098,47.2559 9.56045,38.7881 10.37992,48.6217"
         style="fill:none;fill-opacity:0.75;fill-rule:evenodd;stroke:#000000;stroke-width:3.325;stroke-linecap:butt;stroke-linejoin:round;stroke-miterlimit:4;stroke-opacity:1"
         inkscape:connector-curvature="0" />
      <path
         sodipodi:nodetypes="cccc"
         id="use4351"
         d="m 138.59128,1527.2684 h 14.51886 c 0,0 -0.019,51.8997 15.33832,51.8997 -8.74098,47.2559 -9.56045,38.7881 -10.37992,48.6217"
         style="fill:none;fill-opacity:0.75;fill-rule:evenodd;stroke:#000000;stroke-width:3.325;stroke-linecap:butt;stroke-linejoin:round;stroke-miterlimit:4;stroke-opacity:1"
         inkscape:connector-curvature="0" />
      <path
         id="path4352"
         d="m 140.12896,1527.5699 v 52.9355"
         style="fill:none;fill-opacity:0.75;fill-rule:evenodd;stroke:#000000;stroke-width:3.325;stroke-linecap:butt;stroke-linejoin:miter;stroke-miterlimit:4;stroke-opacity:1"
         inkscape:connector-curvature="0" />
      <path
         transform="matrix(1.065958,0.05034507,-0.03429285,0.726085,40.01797,415.8423)"
         style="color:#000000;display:block;visibility:visible;fill:#000000;fill-opacity:1;fill-rule:nonzero;stroke:none;stroke-width:3pt;marker:none"
         d="m 155.15253,1610.5809 c 0,10.4094 -4.21921,18.8478 -9.42388,18.8478 -5.20466,0 -9.42387,-8.4384 -9.42387,-18.8478 0,-10.4093 4.21921,-18.8477 9.42387,-18.8477 5.20467,0 9.42388,8.4384 9.42388,18.8477 z"
         id="path4353"
         inkscape:connector-curvature="0" />
    </g>
    <g
       style="display:block"
       transform="matrix(-0.09749433,0.236041,-0.180461,-0.07453626,534.36529,177.106)"
       id="use6475">
      <path
         sodipodi:nodetypes="ccccc"
         id="use4355"
         d="m 139.04475,1527.7299 h 14.51886 c 0,0 -0.0189,51.8997 15.3384,51.8997 -8.7409,47.2559 -10.0219,36.9421 -10.84135,46.7757 -8.77325,5.3489 -16.35418,6.3692 -19.73224,5.9823"
         style="fill:#ffffff;fill-opacity:1;fill-rule:evenodd;stroke:none;stroke-width:3.325;stroke-linecap:butt;stroke-linejoin:round;stroke-miterlimit:4;stroke-opacity:1"
         inkscape:connector-curvature="0" />
      <path
         sodipodi:nodetypes="ccccc"
         id="path4356"
         d="m 140.94842,1527.7299 h -14.51886 c 0,0 0.019,51.8997 -15.33832,51.8997 8.74098,47.2559 10.02196,36.9421 10.84143,46.7757 8.77326,5.3489 16.35419,6.3692 19.73225,5.9823"
         style="fill:#ffffff;fill-opacity:1;fill-rule:evenodd;stroke:none;stroke-width:3.325;stroke-linecap:butt;stroke-linejoin:round;stroke-miterlimit:4;stroke-opacity:1"
         inkscape:connector-curvature="0" />
      <path
         sodipodi:nodetypes="ccccc"
         id="path4357"
         d="m 140.94842,1527.2684 h -14.51886 c 0,0 0.019,51.8997 -15.33832,51.8997 8.74098,47.2559 10.02196,36.9421 10.84143,46.7757 10.61473,-5.0767 18.56396,-6.1416 19.38343,3.692"
         style="fill:#ffffff;fill-opacity:1;fill-rule:evenodd;stroke:none;stroke-width:3.325;stroke-linecap:butt;stroke-linejoin:round;stroke-miterlimit:4;stroke-opacity:1"
         inkscape:connector-curvature="0" />
      <path
         sodipodi:nodetypes="cccc"
         id="path4358"
         d="m 140.94842,1527.2684 h -14.51886 c 0,0 0.019,51.8997 -15.33832,51.8997 8.74098,47.2559 9.56045,38.7881 10.37992,48.6217"
         style="fill:none;fill-opacity:0.75;fill-rule:evenodd;stroke:#000000;stroke-width:3.325;stroke-linecap:butt;stroke-linejoin:round;stroke-miterlimit:4;stroke-opacity:1"
         inkscape:connector-curvature="0" />
      <path
         sodipodi:nodetypes="cccc"
         id="use4359"
         d="m 138.59128,1527.2684 h 14.51886 c 0,0 -0.019,51.8997 15.33832,51.8997 -8.74098,47.2559 -9.56045,38.7881 -10.37992,48.6217"
         style="fill:none;fill-opacity:0.75;fill-rule:evenodd;stroke:#000000;stroke-width:3.325;stroke-linecap:butt;stroke-linejoin:round;stroke-miterlimit:4;stroke-opacity:1"
         inkscape:connector-curvature="0" />
      <path
         id="path4360"
         d="m 140.12896,1527.5699 v 52.9355"
         style="fill:none;fill-opacity:0.75;fill-rule:evenodd;stroke:#000000;stroke-width:3.325;stroke-linecap:butt;stroke-linejoin:miter;stroke-miterlimit:4;stroke-opacity:1"
         inkscape:connector-curvature="0" />
      <path
         transform="matrix(1.065958,0.05034507,-0.03429285,0.726085,40.01797,415.8423)"
         style="color:#000000;display:block;visibility:visible;fill:#000000;fill-opacity:1;fill-rule:nonzero;stroke:none;stroke-width:3pt;marker:none"
         d="m 155.15253,1610.5809 c 0,10.4094 -4.21921,18.8478 -9.42388,18.8478 -5.20466,0 -9.42387,-8.4384 -9.42387,-18.8478 0,-10.4093 4.21921,-18.8477 9.42387,-18.8477 5.20467,0 9.42388,8.4384 9.42388,18.8477 z"
         id="path4361"
         inkscape:connector-curvature="0" />
    </g>
  </g>
</svg>
